<mxfile host="app.diagrams.net" modified="2022-09-09T07:09:43.408Z" agent="5.0 (Macintosh; Intel Mac OS X 10_15_7) AppleWebKit/537.36 (KHTML, like Gecko) Chrome/105.0.0.0 Safari/537.36 Edg/105.0.1343.27" etag="Ykw1-l3tZKSN0ZyMKCfZ" version="20.3.0" type="gitlab" pages="2">
  <diagram id="VlsH5lhjOpSEwSzh5p2W" name="Page-1">
    <mxGraphModel dx="2253" dy="864" grid="1" gridSize="10" guides="1" tooltips="1" connect="1" arrows="1" fold="1" page="1" pageScale="1" pageWidth="827" pageHeight="1169" math="0" shadow="0">
      <root>
        <mxCell id="0" />
        <mxCell id="1" parent="0" />
        <mxCell id="26" style="edgeStyle=none;html=1;entryX=0.5;entryY=0;entryDx=0;entryDy=0;rounded=0;" parent="1" source="22" target="25" edge="1">
          <mxGeometry relative="1" as="geometry" />
        </mxCell>
        <mxCell id="27" value="设置&lt;br&gt;" style="edgeLabel;html=1;align=center;verticalAlign=middle;resizable=0;points=[];rounded=0;" parent="26" vertex="1" connectable="0">
          <mxGeometry x="0.0182" y="-1" relative="1" as="geometry">
            <mxPoint as="offset" />
          </mxGeometry>
        </mxCell>
        <mxCell id="22" value="" style="ellipse;whiteSpace=wrap;html=1;rounded=0;" parent="1" vertex="1">
          <mxGeometry x="-200" y="100" width="120" height="80" as="geometry" />
        </mxCell>
        <mxCell id="25" value="" style="rhombus;whiteSpace=wrap;html=1;rounded=0;" parent="1" vertex="1">
          <mxGeometry x="-180" y="290" width="80" height="80" as="geometry" />
        </mxCell>
        <mxCell id="BsX_MDCGCSvW8Lc0w40f-27" value="" style="group;rounded=0;" parent="1" vertex="1" connectable="0">
          <mxGeometry x="-760" y="100" width="400" height="200" as="geometry" />
        </mxCell>
        <mxCell id="19" value="Vertical Container" style="swimlane;rounded=0;" parent="BsX_MDCGCSvW8Lc0w40f-27" vertex="1">
          <mxGeometry width="200" height="200" as="geometry" />
        </mxCell>
        <mxCell id="20" value="Vertical Container" style="swimlane;rounded=0;" parent="BsX_MDCGCSvW8Lc0w40f-27" vertex="1">
          <mxGeometry x="200" width="200" height="200" as="geometry" />
        </mxCell>
        <mxCell id="gpz8AEYmbkSrRpTqdtnd-27" value="" style="shape=cylinder3;whiteSpace=wrap;html=1;boundedLbl=1;backgroundOutline=1;size=15;rounded=0;" parent="1" vertex="1">
          <mxGeometry x="-590" y="350" width="60" height="80" as="geometry" />
        </mxCell>
        <mxCell id="6Q8RHmdKQoC5C-qbZAnX-29" value="" style="edgeStyle=orthogonalEdgeStyle;rounded=0;orthogonalLoop=1;jettySize=auto;html=1;" parent="1" source="6Q8RHmdKQoC5C-qbZAnX-27" target="6Q8RHmdKQoC5C-qbZAnX-28" edge="1">
          <mxGeometry relative="1" as="geometry" />
        </mxCell>
        <mxCell id="6Q8RHmdKQoC5C-qbZAnX-33" value="" style="edgeStyle=orthogonalEdgeStyle;rounded=0;orthogonalLoop=1;jettySize=auto;html=1;exitX=1;exitY=0.5;exitDx=0;exitDy=0;" parent="1" source="6Q8RHmdKQoC5C-qbZAnX-27" target="6Q8RHmdKQoC5C-qbZAnX-32" edge="1">
          <mxGeometry relative="1" as="geometry">
            <Array as="points">
              <mxPoint x="-570" y="500" />
              <mxPoint x="-570" y="585" />
            </Array>
          </mxGeometry>
        </mxCell>
        <mxCell id="6Q8RHmdKQoC5C-qbZAnX-27" value="" style="rounded=1;whiteSpace=wrap;html=1;" parent="1" vertex="1">
          <mxGeometry x="-720" y="470" width="120" height="60" as="geometry" />
        </mxCell>
        <mxCell id="6Q8RHmdKQoC5C-qbZAnX-28" value="" style="rounded=1;whiteSpace=wrap;html=1;" parent="1" vertex="1">
          <mxGeometry x="-520" y="470" width="120" height="60" as="geometry" />
        </mxCell>
        <mxCell id="6Q8RHmdKQoC5C-qbZAnX-32" value="" style="whiteSpace=wrap;html=1;rounded=1;" parent="1" vertex="1">
          <mxGeometry x="-520" y="555" width="120" height="60" as="geometry" />
        </mxCell>
        <mxCell id="6Q8RHmdKQoC5C-qbZAnX-82" value="" style="swimlane;startSize=20;horizontal=0;childLayout=treeLayout;horizontalTree=1;resizable=0;containerType=tree;strokeColor=none;" parent="1" vertex="1">
          <mxGeometry x="140" y="40" width="460" height="704" as="geometry" />
        </mxCell>
        <mxCell id="6Q8RHmdKQoC5C-qbZAnX-83" value="Root" style="whiteSpace=wrap;html=1;fillColor=#ffe6cc;strokeColor=#d79b00;" parent="6Q8RHmdKQoC5C-qbZAnX-82" vertex="1">
          <mxGeometry x="40" y="332" width="100" height="40" as="geometry" />
        </mxCell>
        <mxCell id="6Q8RHmdKQoC5C-qbZAnX-84" value="Child 1" style="whiteSpace=wrap;html=1;" parent="6Q8RHmdKQoC5C-qbZAnX-82" vertex="1">
          <mxGeometry x="190" y="20" width="100" height="40" as="geometry" />
        </mxCell>
        <mxCell id="6Q8RHmdKQoC5C-qbZAnX-85" value="" style="edgeStyle=elbowEdgeStyle;elbow=horizontal;html=1;rounded=0;" parent="6Q8RHmdKQoC5C-qbZAnX-82" source="6Q8RHmdKQoC5C-qbZAnX-83" target="6Q8RHmdKQoC5C-qbZAnX-84" edge="1">
          <mxGeometry relative="1" as="geometry" />
        </mxCell>
        <mxCell id="6Q8RHmdKQoC5C-qbZAnX-86" value="Child 2" style="whiteSpace=wrap;html=1;" parent="6Q8RHmdKQoC5C-qbZAnX-82" vertex="1">
          <mxGeometry x="190" y="180" width="100" height="40" as="geometry" />
        </mxCell>
        <mxCell id="6Q8RHmdKQoC5C-qbZAnX-87" value="" style="edgeStyle=elbowEdgeStyle;elbow=horizontal;html=1;rounded=0;" parent="6Q8RHmdKQoC5C-qbZAnX-82" source="6Q8RHmdKQoC5C-qbZAnX-83" target="6Q8RHmdKQoC5C-qbZAnX-86" edge="1">
          <mxGeometry relative="1" as="geometry" />
        </mxCell>
        <mxCell id="6Q8RHmdKQoC5C-qbZAnX-88" value="" style="edgeStyle=elbowEdgeStyle;elbow=horizontal;html=1;rounded=0;" parent="6Q8RHmdKQoC5C-qbZAnX-82" source="6Q8RHmdKQoC5C-qbZAnX-83" target="6Q8RHmdKQoC5C-qbZAnX-89" edge="1">
          <mxGeometry relative="1" as="geometry">
            <mxPoint x="220" y="-686" as="sourcePoint" />
          </mxGeometry>
        </mxCell>
        <mxCell id="6Q8RHmdKQoC5C-qbZAnX-89" value="Child 2" style="whiteSpace=wrap;html=1;" parent="6Q8RHmdKQoC5C-qbZAnX-82" vertex="1">
          <mxGeometry x="190" y="324" width="100" height="40" as="geometry" />
        </mxCell>
        <mxCell id="6Q8RHmdKQoC5C-qbZAnX-90" value="" style="edgeStyle=elbowEdgeStyle;elbow=horizontal;html=1;rounded=0;" parent="6Q8RHmdKQoC5C-qbZAnX-82" source="6Q8RHmdKQoC5C-qbZAnX-83" target="6Q8RHmdKQoC5C-qbZAnX-91" edge="1">
          <mxGeometry relative="1" as="geometry">
            <mxPoint x="220" y="-606" as="sourcePoint" />
          </mxGeometry>
        </mxCell>
        <mxCell id="6Q8RHmdKQoC5C-qbZAnX-91" value="Child 2" style="whiteSpace=wrap;html=1;" parent="6Q8RHmdKQoC5C-qbZAnX-82" vertex="1">
          <mxGeometry x="190" y="404" width="100" height="40" as="geometry" />
        </mxCell>
        <mxCell id="6Q8RHmdKQoC5C-qbZAnX-92" value="" style="edgeStyle=elbowEdgeStyle;elbow=horizontal;html=1;rounded=0;" parent="6Q8RHmdKQoC5C-qbZAnX-82" source="6Q8RHmdKQoC5C-qbZAnX-83" target="6Q8RHmdKQoC5C-qbZAnX-93" edge="1">
          <mxGeometry relative="1" as="geometry">
            <mxPoint x="220" y="-486" as="sourcePoint" />
          </mxGeometry>
        </mxCell>
        <mxCell id="6Q8RHmdKQoC5C-qbZAnX-93" value="Child 2" style="whiteSpace=wrap;html=1;" parent="6Q8RHmdKQoC5C-qbZAnX-82" vertex="1">
          <mxGeometry x="190" y="484" width="100" height="40" as="geometry" />
        </mxCell>
        <mxCell id="6Q8RHmdKQoC5C-qbZAnX-94" value="" style="edgeStyle=elbowEdgeStyle;elbow=horizontal;html=1;rounded=0;" parent="6Q8RHmdKQoC5C-qbZAnX-82" source="6Q8RHmdKQoC5C-qbZAnX-83" target="6Q8RHmdKQoC5C-qbZAnX-95" edge="1">
          <mxGeometry relative="1" as="geometry">
            <mxPoint x="220" y="-326" as="sourcePoint" />
          </mxGeometry>
        </mxCell>
        <mxCell id="6Q8RHmdKQoC5C-qbZAnX-95" value="Child 2" style="whiteSpace=wrap;html=1;" parent="6Q8RHmdKQoC5C-qbZAnX-82" vertex="1">
          <mxGeometry x="190" y="564" width="100" height="40" as="geometry" />
        </mxCell>
        <mxCell id="6Q8RHmdKQoC5C-qbZAnX-96" value="" style="edgeStyle=elbowEdgeStyle;elbow=horizontal;html=1;rounded=0;" parent="6Q8RHmdKQoC5C-qbZAnX-82" source="6Q8RHmdKQoC5C-qbZAnX-83" target="6Q8RHmdKQoC5C-qbZAnX-97" edge="1">
          <mxGeometry relative="1" as="geometry">
            <mxPoint x="220" y="-126" as="sourcePoint" />
          </mxGeometry>
        </mxCell>
        <mxCell id="6Q8RHmdKQoC5C-qbZAnX-97" value="Child 2" style="whiteSpace=wrap;html=1;" parent="6Q8RHmdKQoC5C-qbZAnX-82" vertex="1">
          <mxGeometry x="190" y="644" width="100" height="40" as="geometry" />
        </mxCell>
        <mxCell id="6Q8RHmdKQoC5C-qbZAnX-98" value="" style="edgeStyle=elbowEdgeStyle;elbow=horizontal;html=1;rounded=0;" parent="6Q8RHmdKQoC5C-qbZAnX-82" source="6Q8RHmdKQoC5C-qbZAnX-84" target="6Q8RHmdKQoC5C-qbZAnX-99" edge="1">
          <mxGeometry relative="1" as="geometry">
            <mxPoint x="280" y="-196" as="sourcePoint" />
          </mxGeometry>
        </mxCell>
        <mxCell id="6Q8RHmdKQoC5C-qbZAnX-99" value="Child 1" style="whiteSpace=wrap;html=1;" parent="6Q8RHmdKQoC5C-qbZAnX-82" vertex="1">
          <mxGeometry x="340" y="20" width="100" height="40" as="geometry" />
        </mxCell>
        <mxCell id="6Q8RHmdKQoC5C-qbZAnX-100" value="" style="edgeStyle=elbowEdgeStyle;elbow=horizontal;html=1;rounded=0;" parent="6Q8RHmdKQoC5C-qbZAnX-82" source="6Q8RHmdKQoC5C-qbZAnX-86" target="6Q8RHmdKQoC5C-qbZAnX-101" edge="1">
          <mxGeometry relative="1" as="geometry">
            <mxPoint x="280" y="-196" as="sourcePoint" />
          </mxGeometry>
        </mxCell>
        <mxCell id="6Q8RHmdKQoC5C-qbZAnX-101" value="Child 2" style="whiteSpace=wrap;html=1;" parent="6Q8RHmdKQoC5C-qbZAnX-82" vertex="1">
          <mxGeometry x="340" y="100" width="100" height="40" as="geometry" />
        </mxCell>
        <mxCell id="6Q8RHmdKQoC5C-qbZAnX-102" value="" style="edgeStyle=elbowEdgeStyle;elbow=horizontal;html=1;rounded=0;" parent="6Q8RHmdKQoC5C-qbZAnX-82" source="6Q8RHmdKQoC5C-qbZAnX-86" target="6Q8RHmdKQoC5C-qbZAnX-103" edge="1">
          <mxGeometry relative="1" as="geometry">
            <mxPoint x="430" y="-356" as="sourcePoint" />
          </mxGeometry>
        </mxCell>
        <mxCell id="6Q8RHmdKQoC5C-qbZAnX-103" value="Child 2" style="whiteSpace=wrap;html=1;" parent="6Q8RHmdKQoC5C-qbZAnX-82" vertex="1">
          <mxGeometry x="340" y="180" width="100" height="40" as="geometry" />
        </mxCell>
        <mxCell id="6Q8RHmdKQoC5C-qbZAnX-104" value="" style="edgeStyle=elbowEdgeStyle;elbow=horizontal;html=1;rounded=0;" parent="6Q8RHmdKQoC5C-qbZAnX-82" source="6Q8RHmdKQoC5C-qbZAnX-86" target="6Q8RHmdKQoC5C-qbZAnX-105" edge="1">
          <mxGeometry relative="1" as="geometry">
            <mxPoint x="430" y="-76" as="sourcePoint" />
          </mxGeometry>
        </mxCell>
        <mxCell id="6Q8RHmdKQoC5C-qbZAnX-105" value="Child 2" style="whiteSpace=wrap;html=1;" parent="6Q8RHmdKQoC5C-qbZAnX-82" vertex="1">
          <mxGeometry x="340" y="260" width="100" height="40" as="geometry" />
        </mxCell>
      </root>
    </mxGraphModel>
  </diagram>
  <diagram id="JxF0x4S8jVjeKG2Oqpg6" name="2">
    <mxGraphModel dx="1426" dy="864" grid="0" gridSize="10" guides="1" tooltips="1" connect="1" arrows="1" fold="1" page="0" pageScale="1" pageWidth="827" pageHeight="1169" math="0" shadow="0">
      <root>
        <mxCell id="0" />
        <mxCell id="1" parent="0" />
      </root>
    </mxGraphModel>
  </diagram>
</mxfile>
