<mxfile host="app.diagrams.net" modified="2022-09-09T01:49:59.177Z" agent="5.0 (Macintosh; Intel Mac OS X 10_15_7) AppleWebKit/537.36 (KHTML, like Gecko) Chrome/105.0.0.0 Safari/537.36 Edg/105.0.1343.27" etag="LdnJ7JuMsBexMB633A4D" version="20.3.0" type="gitlab">
  <diagram id="I9nr4As-tWdMxbjqs3CY" name="第 1 页">
    <mxGraphModel dx="1678" dy="1016" grid="0" gridSize="10" guides="1" tooltips="1" connect="1" arrows="1" fold="1" page="0" pageScale="1" pageWidth="827" pageHeight="1169" math="0" shadow="0">
      <root>
        <mxCell id="0" />
        <mxCell id="1" parent="0" />
      </root>
    </mxGraphModel>
  </diagram>
</mxfile>
